481 852 4 513 514 
0 2 3 517 5 9 541 557 54 65 634 135 649 145 661 166 701 703 745 823 326 849 850 851 343 359 364 392 455 478 
1 4 513 524 15 527 26 27 545 42 52 58 68 71 592 81 89 609 98 99 611 120 124 125 648 146 666 670 172 698 187 705 205 722 211 222 737 232 751 241 242 755 758 761 250 267 269 270 785 283 801 803 813 302 310 311 838 333 334 335 848 338 349 375 386 394 429 477 481 
852 


514 
