1 803 1.0 852 0.78466796875 15 1.0 26 1.0 27 1.0 
15 803 1.0 852 0.78466796875 15 1.0 26 1.0 27 1.0 
26 803 1.0 852 0.78466796875 15 1.0 26 1.0 27 1.0 
27 803 1.0 852 0.78466796875 15 1.0 26 1.0 27 1.0 
42 803 1.0 852 0.78466796875 15 1.0 26 1.0 27 1.0 
52 803 1.0 852 0.78466796875 15 1.0 26 1.0 27 1.0 
68 803 1.0 852 0.78466796875 15 1.0 26 1.0 27 1.0 
81 803 1.0 852 0.78466796875 15 1.0 26 1.0 27 1.0 
89 803 1.0 852 0.78466796875 15 1.0 26 1.0 27 1.0 
98 803 1.0 852 0.78466796875 15 1.0 26 1.0 27 1.0 
99 803 1.0 852 0.78466796875 15 1.0 26 1.0 27 1.0 
120 803 1.0 852 0.78466796875 15 1.0 26 1.0 27 1.0 
124 803 1.0 852 0.78466796875 15 1.0 26 1.0 27 1.0 
125 803 1.0 852 0.78466796875 15 1.0 26 1.0 27 1.0 
146 803 1.0 852 0.78466796875 15 1.0 26 1.0 27 1.0 
172 803 1.0 852 0.78466796875 15 1.0 26 1.0 27 1.0 
187 803 1.0 852 0.78466796875 15 1.0 26 1.0 27 1.0 
211 803 1.0 852 0.78466796875 15 1.0 26 1.0 27 1.0 
222 803 1.0 852 0.78466796875 15 1.0 26 1.0 27 1.0 
232 803 1.0 852 0.78466796875 15 1.0 26 1.0 27 1.0 
241 803 1.0 852 0.78466796875 15 1.0 26 1.0 27 1.0 
242 803 1.0 852 0.78466796875 15 1.0 26 1.0 27 1.0 
250 803 1.0 852 0.78466796875 15 1.0 26 1.0 27 1.0 
267 803 1.0 852 0.78466796875 15 1.0 26 1.0 27 1.0 
269 803 1.0 852 0.78466796875 15 1.0 26 1.0 27 1.0 
283 803 1.0 852 0.78466796875 15 1.0 26 1.0 27 1.0 
302 803 1.0 852 0.78466796875 15 1.0 26 1.0 27 1.0 
333 803 1.0 852 0.78466796875 15 1.0 26 1.0 27 1.0 
334 803 1.0 852 0.78466796875 15 1.0 26 1.0 27 1.0 
335 803 1.0 852 0.78466796875 15 1.0 26 1.0 27 1.0 
349 803 1.0 852 0.78466796875 15 1.0 26 1.0 27 1.0 
386 803 1.0 852 0.78466796875 15 1.0 26 1.0 27 1.0 
394 803 1.0 852 0.78466796875 15 1.0 26 1.0 27 1.0 
429 803 1.0 852 0.78466796875 15 1.0 26 1.0 27 1.0 
477 803 1.0 852 0.78466796875 15 1.0 26 1.0 27 1.0 
524 803 1.0 852 0.78466796875 15 1.0 26 1.0 27 1.0 
527 803 1.0 852 0.78466796875 15 1.0 26 1.0 27 1.0 
545 803 1.0 852 0.78466796875 15 1.0 26 1.0 27 1.0 
592 803 1.0 852 0.78466796875 15 1.0 26 1.0 27 1.0 
648 803 1.0 852 0.78466796875 15 1.0 26 1.0 27 1.0 
666 803 1.0 852 0.78466796875 15 1.0 26 1.0 27 1.0 
670 803 1.0 852 0.78466796875 15 1.0 26 1.0 27 1.0 
698 803 1.0 852 0.78466796875 15 1.0 26 1.0 27 1.0 
705 803 1.0 852 0.78466796875 15 1.0 26 1.0 27 1.0 
755 803 1.0 852 0.78466796875 15 1.0 26 1.0 27 1.0 
758 803 1.0 852 0.78466796875 15 1.0 26 1.0 27 1.0 
761 803 1.0 852 0.78466796875 15 1.0 26 1.0 27 1.0 
785 803 1.0 852 0.78466796875 15 1.0 26 1.0 27 1.0 
801 803 1.0 852 0.78466796875 15 1.0 26 1.0 27 1.0 
813 803 1.0 852 0.78466796875 15 1.0 26 1.0 27 1.0 
838 803 1.0 852 0.78466796875 15 1.0 26 1.0 27 1.0 
848 803 1.0 852 0.78466796875 15 1.0 26 1.0 27 1.0 
4 803 1.0 852 0.78466796875 15 1.0 26 1.0 27 1.0 
58 803 1.0 852 0.78466796875 15 1.0 26 1.0 27 1.0 
71 803 1.0 852 0.78466796875 15 1.0 26 1.0 27 1.0 
205 803 1.0 852 0.78466796875 15 1.0 26 1.0 27 1.0 
270 803 1.0 852 0.78466796875 15 1.0 26 1.0 27 1.0 
310 803 1.0 852 0.78466796875 15 1.0 26 1.0 27 1.0 
311 803 1.0 852 0.78466796875 15 1.0 26 1.0 27 1.0 
338 803 1.0 852 0.78466796875 15 1.0 26 1.0 27 1.0 
375 803 1.0 852 0.78466796875 15 1.0 26 1.0 27 1.0 
481 803 1.0 852 0.78466796875 15 1.0 26 1.0 27 1.0 
513 803 1.0 852 0.78466796875 15 1.0 26 1.0 27 1.0 
514 803 0.9906982421875 852 0.777099609375 15 0.9906982421875 26 0.9906982421875 27 0.9906982421875 
609 803 1.0 852 0.78466796875 15 1.0 26 1.0 27 1.0 
611 803 1.0 852 0.78466796875 15 1.0 26 1.0 27 1.0 
722 803 1.0 852 0.78466796875 15 1.0 26 1.0 27 1.0 
737 803 1.0 852 0.78466796875 15 1.0 26 1.0 27 1.0 
751 803 1.0 852 0.78466796875 15 1.0 26 1.0 27 1.0 
803 803 1.0 852 0.78466796875 15 1.0 26 1.0 27 1.0 
852 803 0.78466796875 852 1.0 15 0.78466796875 26 0.78466796875 27 0.78466796875 
